Sensitivity analysis: run_stress_test() multiple times — st_bonds • r2dii.climate.stress.test
…
# If the output doesn't fit in memory, instead write to disk one file per run
path <- path(tempdir(), "st")
dir_create(path)
suppressWarnings(st_write_bonds(destdir = path, term = c(1, 2)))

# You may read all results at once
runs <- dir_ls(path, recurse = TRUE)
results <- read_csv(runs, id = "arg___val", show_col_types = FALSE)
mutate(results, arg___val = path_ext_remove(path_file(arg___val)))

#> # A tibble: 1,532 × 52
#>    arg___val st_type st_name investor_name portfolio_name company_name      
#>    <chr>     <chr>   <chr>   <chr>         <chr>          <chr>             
#>  1 term___1  bonds   comp    Meta Investor Meta Investor  Alabama Power Co  
#>  2 term___1  bonds   comp    Meta Investor Meta Investor  Alabama Power Co  
#>  3 term___1  bonds   comp    Meta Investor Meta Investor  Alabama Power Co  
#>  4 term___1  bonds   comp    Meta Investor Meta Investor  Alabama Power Co  
#>  5 term___1  bonds   comp    Meta Investor Meta Investor  Alabama Power Co  
#>  6 term___1  bonds   comp    Meta Investor Meta Investor  Alabama Power Co  
#>  7 term___1  bonds   comp    Meta Investor Meta Investor  Alpiq Holding Ag  
#>  8 term___1  bonds   comp    Meta Investor Meta Investor  Alpiq Holding Ag  
#>  9 term___1  bonds   comp    Meta Investor Meta Investor  Alpiq Holding Ag  
#> 10 term___1  bonds   comp    Meta Investor Meta Investor  Ameren Illinois Co
#> # … with 1,522 more rows, and 46 more variables: scenario_geography <chr>,
#> #   scenario_name <chr>, year_of_shock <dbl>, duration_of_shock <dbl>,
#> #   ald_sector <chr>, technology <chr>, production_shock_perc <lgl>,
#> #   asset_portfolio_value <dbl>, tech_company_exposure <dbl>,
#> #   VaR_tech_company <dbl>, tech_company_value_change <dbl>,
#> #   company_exposure <dbl>, VaR_company <dbl>, company_value_change <dbl>,
#> #   technology_exposure <dbl>, VaR_technology <dbl>, …
…
