Sensitivity analysis • r2dii.climate.stress.test
…
Combine

(combined <- combine_outputs())
#> $stress_test_results_bonds_comp.csv
#> # A tibble: 1,030 × 32
#>    run_arg   run_val investor_name portfolio_name company_name  scenario_geogra…
#>    <chr>     <chr>   <chr>         <chr>          <chr>         <chr>           
#>  1 lgd_seni… 0.3     Meta Investor Meta Investor  Alabama Powe… Global          
#>  2 lgd_seni… 0.3     Meta Investor Meta Investor  Alabama Powe… Global          
#>  3 lgd_seni… 0.3     Meta Investor Meta Investor  Alabama Powe… Global          
#>  4 lgd_seni… 0.3     Meta Investor Meta Investor  Alabama Powe… Global          
#>  5 lgd_seni… 0.3     Meta Investor Meta Investor  Alabama Powe… Global          
#>  6 lgd_seni… 0.3     Meta Investor Meta Investor  Alabama Powe… Global          
#>  7 lgd_seni… 0.3     Meta Investor Meta Investor  Alpiq Holdin… Global          
#>  8 lgd_seni… 0.3     Meta Investor Meta Investor  Alpiq Holdin… Global          
#>  9 lgd_seni… 0.3     Meta Investor Meta Investor  Alpiq Holdin… Global          
#> 10 lgd_seni… 0.3     Meta Investor Meta Investor  Ameren Illin… Global          
#> # … with 1,020 more rows, and 26 more variables: scenario_name <chr>,
#> #   year_of_shock <dbl>, duration_of_shock <dbl>, ald_sector <chr>,
#> #   technology <chr>, production_shock_perc <lgl>, asset_portfolio_value <dbl>,
#> #   tech_company_exposure <dbl>, VaR_tech_company <dbl>,
#> #   tech_company_value_change <dbl>, company_exposure <dbl>, VaR_company <dbl>,
#> #   company_value_change <dbl>, technology_exposure <dbl>,
#> #   VaR_technology <dbl>, technology_value_change <dbl>, …
#> 
#> $stress_test_results_bonds_comp_el.csv
#> # A tibble: 310 × 26
#>    run_arg   run_val scenario_name scenario_geogra… investor_name portfolio_name
#>    <chr>     <chr>   <chr>         <chr>            <chr>         <chr>         
#>  1 lgd_seni… 0.3     Carbon balan… Global           Meta Investor Meta Investor 
#>  2 lgd_seni… 0.3     Carbon balan… Global           Meta Investor Meta Investor 
#>  3 lgd_seni… 0.3     Carbon balan… Global           Meta Investor Meta Investor 
#>  4 lgd_seni… 0.3     Carbon balan… Global           Meta Investor Meta Investor 
#>  5 lgd_seni… 0.3     Carbon balan… Global           Meta Investor Meta Investor 
#>  6 lgd_seni… 0.3     Carbon balan… Global           Meta Investor Meta Investor 
#>  7 lgd_seni… 0.3     Carbon balan… Global           Meta Investor Meta Investor 
#>  8 lgd_seni… 0.3     Carbon balan… Global           Meta Investor Meta Investor 
#>  9 lgd_seni… 0.3     Carbon balan… Global           Meta Investor Meta Investor 
#> 10 lgd_seni… 0.3     Carbon balan… Global           Meta Investor Meta Investor 
#> # … with 300 more rows, and 20 more variables: company_name <chr>, id <chr>,
#> #   ald_sector <chr>, equity_0_baseline <dbl>, equity_0_late_sudden <dbl>,
#> #   debt <dbl>, volatility <dbl>, risk_free_rate <dbl>, term <dbl>,
#> #   Survival_baseline <dbl>, Survival_late_sudden <dbl>, PD_baseline <dbl>,
#> #   PD_late_sudden <dbl>, PD_change <dbl>, pd <dbl>, lgd <dbl>,
#> #   percent_exposure <dbl>, exposure_at_default <dbl>,
#> #   expected_loss_baseline <dbl>, expected_loss_late_sudden <dbl>
#> 
#> $stress_test_results_bonds_port.csv
#> # A tibble: 24 × 24
#>    run_arg   run_val investor_name portfolio_name scenario_geogra… scenario_name
#>    <chr>     <chr>   <chr>         <chr>          <chr>            <chr>        
#>  1 lgd_seni… 0.3     Meta Investor Meta Investor  Global           Carbon balan…
#>  2 lgd_seni… 0.3     Meta Investor Meta Investor  Global           Carbon balan…
#>  3 lgd_seni… 0.3     Meta Investor Meta Investor  Global           Carbon balan…
#>  4 lgd_seni… 0.3     Meta Investor Meta Investor  Global           Carbon balan…
#>  5 lgd_seni… 0.3     Meta Investor Meta Investor  Global           Carbon balan…
#>  6 lgd_seni… 0.3     Meta Investor Meta Investor  Global           Carbon balan…
#>  7 lgd_seni… 0.3     Meta Investor Meta Investor  Global           Carbon balan…
#>  8 lgd_seni… 0.3     Meta Investor Meta Investor  Global           Carbon balan…
#>  9 lgd_seni… 0.3     Meta Investor Meta Investor  Global           Carbon balan…
#> 10 lgd_seni… 0.3     Meta Investor Meta Investor  Global           Carbon balan…
#> # … with 14 more rows, and 18 more variables: year_of_shock <dbl>,
#> #   duration_of_shock <dbl>, ald_sector <chr>, technology <chr>,
#> #   production_shock_perc <lgl>, asset_portfolio_value <dbl>,
#> #   technology_exposure <dbl>, VaR_technology <dbl>,
#> #   technology_value_change <dbl>, sector_exposure <dbl>, VaR_sector <dbl>,
#> #   sector_value_change <dbl>, analysed_sectors_exposure <dbl>,
#> #   VaR_analysed_sectors <dbl>, analysed_sectors_value_change <dbl>, …
#> 
#> $stress_test_results_bonds_sector_pd_changes_annual.csv
#> # A tibble: 88 × 9
#>    run_arg   run_val scenario_name scenario_geogra… investor_name portfolio_name
#>    <chr>     <chr>   <chr>         <chr>            <chr>         <chr>         
#>  1 lgd_seni… 0.3     Carbon balan… Global           Meta Investor Meta Investor 
#>  2 lgd_seni… 0.3     Carbon balan… Global           Meta Investor Meta Investor 
#>  3 lgd_seni… 0.3     Carbon balan… Global           Meta Investor Meta Investor 
#>  4 lgd_seni… 0.3     Carbon balan… Global           Meta Investor Meta Investor 
#>  5 lgd_seni… 0.3     Carbon balan… Global           Meta Investor Meta Investor 
#>  6 lgd_seni… 0.3     Carbon balan… Global           Meta Investor Meta Investor 
#>  7 lgd_seni… 0.3     Carbon balan… Global           Meta Investor Meta Investor 
#>  8 lgd_seni… 0.3     Carbon balan… Global           Meta Investor Meta Investor 
#>  9 lgd_seni… 0.3     Carbon balan… Global           Meta Investor Meta Investor 
#> 10 lgd_seni… 0.3     Carbon balan… Global           Meta Investor Meta Investor 
#> # … with 78 more rows, and 3 more variables: ald_sector <chr>, year <dbl>,
#> #   PD_change <dbl>
…
