Sensitivity analysis: run_stress_test() multiple times — rerun_st • r2dii.climate.stress.test
…
# The full view of all your results
full <- unnest(compact, st_result)

#> Warning: One or more parsing issues, see `problems()` for details
#> Warning: One or more parsing issues, see `problems()` for details

# You may save the result
path <- tempfile()
write_csv(full, file = path)
# and eventually re-read it
read_csv(path, show_col_types = FALSE)

#> # A tibble: 2,298 × 53
#>    st_type st_name arg_name arg_value investor_name portfolio_name company_name 
#>    <chr>   <chr>   <chr>        <dbl> <chr>         <chr>          <chr>        
#>  1 bonds   comp    term             1 Meta Investor Meta Investor  Alabama Powe…
#>  2 bonds   comp    term             1 Meta Investor Meta Investor  Alabama Powe…
#>  3 bonds   comp    term             1 Meta Investor Meta Investor  Alabama Powe…
#>  4 bonds   comp    term             1 Meta Investor Meta Investor  Alabama Powe…
#>  5 bonds   comp    term             1 Meta Investor Meta Investor  Alabama Powe…
#>  6 bonds   comp    term             1 Meta Investor Meta Investor  Alabama Powe…
#>  7 bonds   comp    term             1 Meta Investor Meta Investor  Alpiq Holdin…
#>  8 bonds   comp    term             1 Meta Investor Meta Investor  Alpiq Holdin…
#>  9 bonds   comp    term             1 Meta Investor Meta Investor  Alpiq Holdin…
#> 10 bonds   comp    term             1 Meta Investor Meta Investor  Ameren Illin…
#> # … with 2,288 more rows, and 46 more variables: scenario_geography <chr>,
#> #   scenario_name <chr>, year_of_shock <dbl>, duration_of_shock <dbl>,
#> #   ald_sector <chr>, technology <chr>, production_shock_perc <lgl>,
#> #   asset_portfolio_value <dbl>, tech_company_exposure <dbl>,
#> #   VaR_tech_company <dbl>, tech_company_value_change <dbl>,
#> #   company_exposure <dbl>, VaR_company <dbl>, company_value_change <dbl>,
#> #   technology_exposure <dbl>, VaR_technology <dbl>, …
…
